Premier League Players Performance Analysis
…
# Reshape wide → long using pivot_longer (equivalent to melt in Python)

PL_Players_Stats_long <- PL_Players_Stats %>%
     pivot_longer(
      cols      = Goals_Home:Shots_Away,
    names_to  = c("Stat", "Venue"),
    names_sep = "_",
    values_to = "Value"
      )
PL_Players_Stats_long

# A tibble: 30 × 5
   Players Clubs     Stat    Venue Value
   <chr>   <chr>     <chr>   <chr> <int>
 1 HAALAND MAN_City  Goals   Home     14
 2 HAALAND MAN_City  Goals   Away     12
 3 HAALAND MAN_City  Assists Home      3
 4 HAALAND MAN_City  Assists Away      2
 5 HAALAND MAN_City  Shots   Home     52
 6 HAALAND MAN_City  Shots   Away     48
 7 SALAH   Liverpool Goals   Home     11
 8 SALAH   Liverpool Goals   Away     10
 9 SALAH   Liverpool Assists Home      8
10 SALAH   Liverpool Assists Away      6
# ℹ 20 more rows
…
